{
    "KPlugin": {
        "Description": "Transfers application's menu to the desktop",
        "Description[ar]": "ينقل قائمة التطبيقات إلى سطح المكتب",
        "Description[az]": "Tətbiqlər menyusunu İş masasında yerləşdirir",
        "Description[be]": "Перанос меню праграм на працоўны стол",
        "Description[bg]": "Премества меню на приложения на работния плот",
        "Description[ca@valencia]": "Transferix els menús d'aplicació cap a l'escriptori",
        "Description[ca]": "Transfereix els menús d'aplicació a l'escriptori",
        "Description[cs]": "Přesouvá nabídku aplikací na plochu",
        "Description[da]": "Overfører programmets menu til skrivebordet",
        "Description[de]": "Überträgt Anwendungsmenüs auf die Arbeitsfläche",
        "Description[en_GB]": "Transfers application's menu to the desktop",
        "Description[eo]": "Transdonas menuon de aplikaĵo al la labortablo",
        "Description[es]": "Transfiere el menú de aplicaciones al escritorio",
        "Description[et]": "Rakenduste menüü paigutamine töölauale",
        "Description[eu]": "Aplikazioen menua mahaigainera transferitzen du",
        "Description[fi]": "Siirtää sovelluksen valikon työpöydälle",
        "Description[fr]": "Transfère le menu des applications sur le bureau.",
        "Description[he]": "מעביר את תפריטי היישום לשולחן העבודה",
        "Description[hi]": "अनुप्रयोग के मेन्यू को डेस्कटॉप पर स्थानांतरित करता है",
        "Description[hu]": "Átviszi az alkalmazás menüjét az asztalra",
        "Description[ia]": "Il transfere menu de applicationes al scriptorio",
        "Description[id]": "Mentransfer menu aplikasi ke desktop",
        "Description[is]": "Miðlar forritavalmyndum á skjáborðið",
        "Description[it]": "Trasferisce al desktop i menu delle applicazioni",
        "Description[ja]": "アプリケーションメニューをデスクトップに転送します",
        "Description[ka]": "აპლიკაციის მენიუს სამუშაო მაგიდაზე გატანა",
        "Description[ko]": "앱 메뉴를 바탕 화면으로 보내기",
        "Description[lt]": "Perkelia programos meniu į darbalaukį",
        "Description[nl]": "Brengt het menu van de toepassing over naar het bureaublad",
        "Description[nn]": "Overfører programmenyar til skrivebordet",
        "Description[pa]": "ਐਪਲੀਕੇਸ਼ਨ ਦੇ ਮੇਨੂ ਨੂੰ ਡੈਸਕਟਾਪ ਉੱਤੇ ਭੇਜੋ",
        "Description[pl]": "Przenosi menu aplikacji na pulpit",
        "Description[pt]": "Transfere o menu da aplicação para o ecrã",
        "Description[pt_BR]": "Transfere o menu do aplicativo para a área de trabalho",
        "Description[ro]": "Transferă meniul aplicațiilor către birou",
        "Description[ru]": "Перемещает меню приложения на рабочий стол",
        "Description[sa]": "अनुप्रयोगविकल्पसूचि कार्यमुख मध्ये स्थानान्तरयन्तु",
        "Description[sk]": "Presunúť ponuky aplikácie na plochu",
        "Description[sl]": "Prenese programski meni na namizje",
        "Description[sv]": "Överför programmets meny till skrivbordet",
        "Description[ta]": "செயலியின் பட்டியை பணிமேடையில் காட்டும்",
        "Description[tr]": "Uygulamanın menüsünü masaüstüne aktarır",
        "Description[uk]": "Передає меню програм на стільницю",
        "Description[vi]": "Chuyển trình đơn của ứng dụng ra bàn làm việc",
        "Description[x-test]": "xxTransfers application's menu to the desktopxx",
        "Description[zh_CN]": "将应用程序的菜单转移到桌面上",
        "Description[zh_TW]": "將應用程式選單移動到桌面上",
        "Name": "Application menus daemon",
        "Name[ar]": "عفريت قوائم التطبيقات",
        "Name[az]": "Tətbiqlər menyusu fon xidməti",
        "Name[be]": "Дэман меню праграм",
        "Name[bg]": "Демон на меню на приложенията",
        "Name[bs]": "Demon za aplikacijske menije",
        "Name[ca@valencia]": "Dimoni de menús d'aplicació",
        "Name[ca]": "Dimoni de menús d'aplicació",
        "Name[cs]": "Démon nabídky aplikací",
        "Name[da]": "Dæmon til programmenuer",
        "Name[de]": "Dienst für Anwendungsmenüs",
        "Name[el]": "Δαίμων για τα μενού των εφαρμογών",
        "Name[en_GB]": "Application menus daemon",
        "Name[eo]": "Aplikaĵmenua demono",
        "Name[es]": "Demonio de menús de aplicación",
        "Name[et]": "Rakenduste menüü deemon",
        "Name[eu]": "Aplikazio-menuen daimona",
        "Name[fi]": "Sovellusvalikkopalvelu",
        "Name[fr]": "Démon de menus des applications",
        "Name[gl]": "Servizo de menús da aplicación",
        "Name[he]": "תהליך רקע של תפריט היישומים",
        "Name[hi]": "अनुप्रयोग मेन्यू डेमॉन",
        "Name[hsb]": "Demon za menije aplikacijow",
        "Name[hu]": "Alkalmazás menük démon",
        "Name[ia]": "Demone de menus de application",
        "Name[id]": "Daemon menu-menu aplikasi",
        "Name[is]": "Forritavalmyndamiðlari",
        "Name[it]": "Demone dei menu delle applicazioni",
        "Name[ja]": "アプリケーションメニューデーモン",
        "Name[ka]": "აპლიკაციის მენიუების დემონი",
        "Name[kk]": "Қолданба мәзірінің қызметі",
        "Name[ko]": "앱 메뉴 데몬",
        "Name[lt]": "Programos meniu tarnyba",
        "Name[ml]": "ആപ്ലിക്കേഷൻ മെനു ഡീമൺ",
        "Name[mr]": "अनुप्रयोग मेन्यू डीमन",
        "Name[nb]": "Daemon for programmenyer",
        "Name[nds]": "Programmmenü-Dämoon",
        "Name[nl]": "Daemon voor menu van toepassingen",
        "Name[nn]": "Program­meny-teneste",
        "Name[pa]": "ਐਪਲੀਕੇਸ਼ਨ ਮੈਨੂ ਡੈਮਨ",
        "Name[pl]": "Usługa menu programów",
        "Name[pt]": "Servidor dos menus da aplicação",
        "Name[pt_BR]": "Servidor dos menus do aplicativo",
        "Name[ro]": "Demon pentru meniurile aplicațiilor",
        "Name[ru]": "Фоновая служба меню приложений",
        "Name[sa]": "अनुप्रयोग विकल्पसूचि डेमन",
        "Name[sk]": "Démon ponúk aplikácie",
        "Name[sl]": "Ozadnji program za programske menije",
        "Name[sr@ijekavian]": "Демон програмских менија",
        "Name[sr@ijekavianlatin]": "Demon programskih menija",
        "Name[sr@latin]": "Demon programskih menija",
        "Name[sr]": "Демон програмских менија",
        "Name[sv]": "Demon för programmenyer",
        "Name[ta]": "செயலி பட்டிகளுக்கான பின்னணி சேவை",
        "Name[tg]": "Раванди дохилии феҳристҳои барнома",
        "Name[tr]": "Uygulama Menüleri Ardalan Süreci",
        "Name[uk]": "Фонова служба меню програм",
        "Name[vi]": "Trình nền các trình đơn ứng dụng",
        "Name[x-test]": "xxApplication menus daemonxx",
        "Name[zh_CN]": "应用程序菜单守护程序",
        "Name[zh_TW]": "應用程式選單伺服程式"
    },
    "X-KDE-Kded-autoload": true,
    "X-KDE-Kded-load-on-demand": false,
    "X-KDE-Kded-phase": 1
}
