{
    "KPlugin": {
        "Authors": [
            {
                "Email": "jangerrit@weiler-marker.com",
                "Name": "Jan Gerrit Marker",
                "Name[ar]": "Jan Gerrit Marker",
                "Name[az]": "Jan Gerrit Markeri",
                "Name[be]": "Jan Gerrit Marker",
                "Name[bg]": "Jan Gerrit Marker",
                "Name[ca@valencia]": "Jan Gerrit Marker",
                "Name[ca]": "Jan Gerrit Marker",
                "Name[cs]": "Jan Gerrit Marker",
                "Name[da]": "Jan Gerrit Marker",
                "Name[de]": "Jan Gerrit Marker",
                "Name[en_GB]": "Jan Gerrit Marker",
                "Name[eo]": "Jan Gerrit Marker",
                "Name[es]": "Jan Gerrit Marker",
                "Name[et]": "Jan Gerrit Marker",
                "Name[eu]": "Jan Gerrit Marker",
                "Name[fi]": "Jan Gerrit Marker",
                "Name[fr]": "Jan Gerrit Marker",
                "Name[he]": "יאן גריט מרקר",
                "Name[hi]": "जन गेरिट मार्कर",
                "Name[hu]": "Jan Gerrit Marker",
                "Name[ia]": "Jan Gerrit Marker",
                "Name[id]": "Jan Gerrit Marker",
                "Name[is]": "Jan Gerrit Marker",
                "Name[it]": "Jan Gerrit Marker",
                "Name[ja]": "Jan Gerrit Marker",
                "Name[ka]": "Jan Gerrit Marker",
                "Name[ko]": "Jan Gerrit Marker",
                "Name[lt]": "Jan Gerrit Marker",
                "Name[nl]": "Jan Gerrit Marker",
                "Name[nn]": "Jan Gerrit Marker",
                "Name[pl]": "Jan Gerrit Marker",
                "Name[pt]": "Jan Gerrit Marker",
                "Name[pt_BR]": "Jan Gerrit Marker",
                "Name[ro]": "Jan Gerrit Marker",
                "Name[ru]": "Jan Gerrit Marker",
                "Name[sa]": "जन गेरिट् मार्कर",
                "Name[sk]": "Jan Gerrit Marker",
                "Name[sl]": "Jan Gerrit Marker",
                "Name[sv]": "Jan Gerrit Marker",
                "Name[ta]": "ஜான் கெரிட் மார்க்கர்",
                "Name[tr]": "Jan Gerrit Marker",
                "Name[uk]": "Jan Gerrit Marker",
                "Name[vi]": "Jan Gerrit Marker",
                "Name[x-test]": "xxJan Gerrit Markerxx",
                "Name[zh_CN]": "Jan Gerrit Marker",
                "Name[zh_TW]": "Jan Gerrit Marker"
            }
        ],
        "Description": "Stop applications that are currently running",
        "Description[ar]": "أوقف التطبيقات التي تعمل حاليًا",
        "Description[az]": "Hal-hazırda işləyən tətbiqləri dayandırmaq",
        "Description[be]": "Спыненне запушчаных праграм",
        "Description[bg]": "Спира приложения, които се изпълняват в момента",
        "Description[ca@valencia]": "Para les aplicacions que estan en execució",
        "Description[ca]": "Atura les aplicacions que estan en execució",
        "Description[cs]": "Ukončit aktuálně spuštěné aplikace",
        "Description[da]": "Stop programmer der kører i øjeblikket",
        "Description[de]": "Gerade laufende Anwendungen beenden",
        "Description[en_GB]": "Stop applications that are currently running",
        "Description[eo]": "Ĉesi aplikaĵojn, kiuj aktuale rulas",
        "Description[es]": "Detener aplicaciones que se están ejecutando",
        "Description[et]": "Töötavate rakenduste töö lõpetamine",
        "Description[eu]": "Gelditu une honetan exekutatzen ari diren aplikazioak",
        "Description[fi]": "Pysäytä käynnissä olevia sovelluksia",
        "Description[fr]": "Arrêter des applications en cours d'exécution",
        "Description[he]": "עצירת יישומים הפועלים כעת",
        "Description[hi]": "वर्तमान में चल रहे अनुप्रयोगों को रोकें ",
        "Description[hu]": "Jelenleg futó alkalmazások leállítása",
        "Description[ia]": "Stoppa applicationes que il es currentemente executante",
        "Description[id]": "Menghentikan aplikasi yang saat ini berjalan",
        "Description[is]": "Stöðva forrit sem eru í gangi sem stendur",
        "Description[it]": "Ferma le applicazioni attualmente in esecuzione",
        "Description[ja]": "実行中のアプリケーションを停止します",
        "Description[ka]": "ამჟამად გაშვებული აპლიკაციების გაჩერება",
        "Description[ko]": "현재 실행 중인 앱을 끝냅니다",
        "Description[lt]": "Stabdyti šiuo metu veikiančias programas",
        "Description[nl]": "Beëindig toepassingen die momenteel draaien",
        "Description[nn]": "Stopp program som køyrer",
        "Description[pa]": "ਐਪਲੀਕੇਸ਼ਨਾਂ ਨੂੰ ਰੋਕੋ, ਜੋ ਇਸ ਸਮੇਂ ਚੱਲ ਰਹੀਆਂ ਹਨ",
        "Description[pl]": "Zamyka obecnie uruchomione programy",
        "Description[pt]": "Parar as aplicações actualmente em execução",
        "Description[pt_BR]": "Interrompe aplicativos em execução",
        "Description[ro]": "Oprește aplicații ce rulează momentan",
        "Description[ru]": "Завершение работы запущенных в данный момент приложений",
        "Description[sa]": "सम्प्रति प्रचलिताः अनुप्रयोगाः स्थगयन्तु",
        "Description[sk]": "Zastavenie práve bežiacich aplikácií",
        "Description[sl]": "Zaustavi trenutno zagnane programe",
        "Description[sv]": "Stoppa program som för närvarande kör",
        "Description[ta]": "ஓடிக்கொண்டிருக்கும் செயலிகளை நிறுத்தும்",
        "Description[tr]": "Şu anda çalışan uygulamaları durdurun",
        "Description[uk]": "Завершує роботу запущених програм",
        "Description[vi]": "Dừng các ứng dụng đang chạy",
        "Description[x-test]": "xxStop applications that are currently runningxx",
        "Description[zh_CN]": "停止正在运行的应用程序",
        "Description[zh_TW]": "停止目前執行中的應用程式",
        "EnabledByDefault": true,
        "Icon": "application-exit",
        "License": "LGPL",
        "Name": "Terminate Applications",
        "Name[ar]": "أنهِ التطبيقات",
        "Name[az]": "Tətbiqləri dayandırmaq",
        "Name[be]": "Завяршэнне праграм",
        "Name[bg]": "Прекъсване на програми",
        "Name[bn]": "অ্যাপলিকেশন থামাও",
        "Name[bs]": "Obustavljanje programa",
        "Name[ca@valencia]": "Finalitza aplicacions",
        "Name[ca]": "Finalitza aplicacions",
        "Name[cs]": "Ukončit aplikace",
        "Name[csb]": "Zamëkô apliakcëje",
        "Name[da]": "Afslut programmer",
        "Name[de]": "Programme beenden",
        "Name[el]": "Τερματισμός εφαρμογών",
        "Name[en_GB]": "Terminate Applications",
        "Name[eo]": "Terminalaj Aplikaĵoj",
        "Name[es]": "Cerrar aplicaciones",
        "Name[et]": "Rakenduste töö lõpetamine",
        "Name[eu]": "Amaitu aplikazioak",
        "Name[fa]": "پایان دادن به برنامه‌ها",
        "Name[fi]": "Sovellusten lopetus",
        "Name[fr]": "Terminer des applications",
        "Name[fy]": "Programma's ôfbrekke",
        "Name[ga]": "Scoir ó Fheidhmchláir",
        "Name[gl]": "Terminar aplicacións",
        "Name[gu]": "કાર્યક્રમો બંધ કરો",
        "Name[he]": "חיסול יישומים",
        "Name[hi]": "अनुप्रयोग खतम करो",
        "Name[hr]": "Prekini aplikacije",
        "Name[hsb]": "Zakónči aplikacije",
        "Name[hu]": "Program félbeszakítása",
        "Name[ia]": "Termina applicationes",
        "Name[id]": "Mengakhiri Aplikasi",
        "Name[is]": "Loka forritum",
        "Name[it]": "Termina applicazioni",
        "Name[ja]": "アプリケーションを終了",
        "Name[ka]": "აპლიკაციების მოკვლა",
        "Name[kk]": "Қолданбалары аяқтау",
        "Name[km]": "កម្មវិធី​ស្ថានីយ",
        "Name[kn]": "ಅನ್ವಯಗಳನ್ನು ಅಂತ್ಯಗೊಳಿಸು",
        "Name[ko]": "앱 끝내기",
        "Name[lt]": "Baigti programų darbą",
        "Name[lv]": "Pārtraukt programmas",
        "Name[mk]": "Запирање на апликации",
        "Name[ml]": "പ്രയോഗങ്ങളെ ഇല്ലാതാക്കുക",
        "Name[mr]": "अनुप्रयोग बंद करा",
        "Name[nb]": "Avslutt programmer",
        "Name[nds]": "Programmen utmaken",
        "Name[nl]": "Toepassingen afsluiten",
        "Name[nn]": "Avslutt program",
        "Name[pa]": "ਐਪਲੀਕੇਸ਼ਨਾਂ ਬੰਦ ਕਰੋ",
        "Name[pl]": "Zamykanie programów",
        "Name[pt]": "Terminar as Aplicações",
        "Name[pt_BR]": "Terminar aplicativos",
        "Name[ro]": "Termină aplicații",
        "Name[ru]": "Завершение приложений",
        "Name[sa]": "टर्मिनल अनुप्रयोगाः",
        "Name[si]": "යෙදුම් මර්‍ධනය",
        "Name[sk]": "Ukončenie aplikácií",
        "Name[sl]": "Končaj programe",
        "Name[sr@ijekavian]": "обустављање програма",
        "Name[sr@ijekavianlatin]": "obustavljanje programa",
        "Name[sr@latin]": "obustavljanje programa",
        "Name[sr]": "обустављање програма",
        "Name[sv]": "Avsluta program",
        "Name[ta]": "செயலிகளை நிறுத்து",
        "Name[th]": "ยุติการทำงานของโปรแกรม",
        "Name[tr]": "Uygulamaları Bitir",
        "Name[ug]": "پروگراممىلارنى توختات",
        "Name[uk]": "Переривання програм",
        "Name[vi]": "Kết thúc ứng dụng",
        "Name[wa]": "Fé fini des programes",
        "Name[x-test]": "xxTerminate Applicationsxx",
        "Name[zh_CN]": "终止程序",
        "Name[zh_TW]": "終端機應用程式"
    },
    "X-KDE-ConfigModule": "kf6/krunner/kcms/kcm_krunner_kill"
}
